Linking occupatonal hisco form 1910 to 1930
…
    trafikbiträde
127

df_1930 %>%
  anti_join(df_1910) %>%
  mutate(words = str_count(yrke, "\\w+")) %>%
  mutate(yrke_1 = str_squish(str_remove(yrke, " .*"))) %>%
  anti_join(df_1910, by = c("yrke_1" = "yrke")) %>% 
  add_count(yrke)

Joining, by = "yrke"

# A tibble: 29,802 × 12
         id yrke    kon   yrke_…¹ flag_fd flag_fn yrke_…² yrke_…³ flag_…⁴ yrke_1
      <int> <chr>   <chr> <chr>   <lgl>   <lgl>   <chr>   <chr>   <lgl>   <chr> 
 1 29170695 linnef… K     Linnef… FALSE   FALSE   <NA>    <NA>    FALSE   linne…
 2 29170719 husger… M     Husger… FALSE   FALSE   <NA>    <NA>    FALSE   husge…
 3 29170749 slotts… M     Slotts… FALSE   FALSE   <NA>    <NA>    FALSE   slott…
 4 29170752 slotts… M     Slotts… FALSE   FALSE   <NA>    <NA>    FALSE   slott…
 5 29170754 slotts… K     Slotts… FALSE   FALSE   <NA>    <NA>    FALSE   slott…
 6 29170811 expedi… M     Expedi… FALSE   FALSE   <NA>    <NA>    FALSE   exped…
 7 29170816 brevbä… M     Brevbä… FALSE   FALSE   <NA>    <NA>    FALSE   brevb…
 8 29170835 tryckb… M     Tryckb… FALSE   FALSE   <NA>    <NA>    FALSE   tryck…
 9 29170849 trapps… K     Trapps… FALSE   FALSE   <NA>    <NA>    FALSE   trapp…
10 29170867 smides… M     Smides… FALSE   FALSE   <NA>    <NA>    FALSE   smide…
# … with 29,792 more rows, 2 more variables: words <int>, n <int>, and
#   abbreviated variable names ¹​yrke_copy, ²​yrke_pow, ³​yrke_f_occ,
#   ⁴​flag_for_multi_occs
…
